{"data":[{"id":46,"documentId":"3UrN09vwnaZXcuHw","title":"VIP Private Room","category":null,"createdAt":"2025-12-08T10:17:27.206Z","updatedAt":"2025-12-08T10:17:27.206Z","publishedAt":"2025-12-08T10:17:27.206Z","locale":"en"},{"id":48,"documentId":"oBjtRLKkonh9xdYp","title":"Adventure Zone","category":null,"createdAt":"2025-12-08T10:17:27.206Z","updatedAt":"2025-12-08T10:17:27.206Z","publishedAt":"2025-12-08T10:17:27.206Z","locale":"en"},{"id":50,"documentId":"uUv3-VCiSLHkmv6a","title":"Kids Playing Games","category":null,"createdAt":"2025-12-08T10:17:27.206Z","updatedAt":"2025-12-08T10:17:27.206Z","publishedAt":"2025-12-08T10:17:27.206Z","locale":"en"},{"id":52,"documentId":"nv07Gtc8IWv8qiga","title":"Birthday Cake Table","category":null,"createdAt":"2025-12-08T10:17:27.206Z","updatedAt":"2025-12-08T10:17:27.206Z","publishedAt":"2025-12-08T10:17:27.206Z","locale":"en"},{"id":54,"documentId":"u5MjOEQGZ4AMoYYf","title":"Face Painting Station","category":null,"createdAt":"2025-12-08T10:17:27.206Z","updatedAt":"2025-12-08T10:17:27.206Z","publishedAt":"2025-12-08T10:17:27.206Z","locale":"en"},{"id":56,"documentId":"8g7iq3aTAbIsgn1C","title":"Ball Pit Area","category":null,"createdAt":"2025-12-08T10:17:27.206Z","updatedAt":"2025-12-08T10:17:27.206Z","publishedAt":"2025-12-08T10:17:27.206Z","locale":"en"},{"id":58,"documentId":"uPS0zOTOukA-QSJt","title":"Princess Party Setup","category":null,"createdAt":"2025-12-08T10:17:27.206Z","updatedAt":"2025-12-08T10:17:27.206Z","publishedAt":"2025-12-08T10:17:27.206Z","locale":"en"},{"id":60,"documentId":"epIG_b3cj3TcZnpF","title":"Superhero Training Course","category":null,"createdAt":"2025-12-08T10:17:27.206Z","updatedAt":"2025-12-08T10:17:27.206Z","publishedAt":"2025-12-08T10:17:27.206Z","locale":"en"},{"id":62,"documentId":"w9F-dt19AcSm-DOV","title":"Science Lab Experiment","category":null,"createdAt":"2025-12-08T10:17:27.206Z","updatedAt":"2025-12-08T10:17:27.206Z","publishedAt":"2025-12-08T10:17:27.206Z","locale":"en"},{"id":64,"documentId":"vrNDnDoBTiDlqG-7","title":"Dance Floor with Lights","category":null,"createdAt":"2025-12-08T10:17:27.206Z","updatedAt":"2025-12-08T10:17:27.206Z","publishedAt":"2025-12-08T10:17:27.206Z","locale":"en"},{"id":66,"documentId":"In_HnGDnjiwD9qbx","title":"Art Studio Corner","category":null,"createdAt":"2025-12-08T10:17:27.206Z","updatedAt":"2025-12-08T10:17:27.206Z","publishedAt":"2025-12-08T10:17:27.206Z","locale":"en"},{"id":68,"documentId":"puolL57tkONJ4yKd","title":"Dining Area","category":null,"createdAt":"2025-12-08T10:17:27.206Z","updatedAt":"2025-12-08T10:17:27.206Z","publishedAt":"2025-12-08T10:17:27.206Z","locale":"en"},{"id":70,"documentId":"44aZTxXfi8a23tB7","title":"Gaming Station","category":null,"createdAt":"2025-12-08T10:17:27.206Z","updatedAt":"2025-12-08T10:17:27.206Z","publishedAt":"2025-12-08T10:17:27.206Z","locale":"en"},{"id":72,"documentId":"52XulqUzAGqqgtBL","title":"Outdoor Play Area","category":null,"createdAt":"2025-12-08T10:17:27.207Z","updatedAt":"2025-12-08T10:17:27.207Z","publishedAt":"2025-12-08T10:17:27.207Z","locale":"en"},{"id":74,"documentId":"OS2Is0pEyTBYzrlD","title":"Happy Birthday Kids","category":null,"createdAt":"2025-12-08T10:17:27.207Z","updatedAt":"2025-12-08T10:17:27.207Z","publishedAt":"2025-12-08T10:17:27.207Z","locale":"en"},{"id":76,"documentId":"vu3HWNb9rR92HKQ9","title":"Party Host with Children","category":null,"createdAt":"2025-12-08T10:17:27.207Z","updatedAt":"2025-12-08T10:17:27.207Z","publishedAt":"2025-12-08T10:17:27.207Z","locale":"en"},{"id":78,"documentId":"YT_hSWblqBovAka_","title":"Balloon Decorations","category":null,"createdAt":"2025-12-08T10:17:27.207Z","updatedAt":"2025-12-08T10:17:27.207Z","publishedAt":"2025-12-08T10:17:27.207Z","locale":"en"},{"id":80,"documentId":"WEQNS0am3A-2WaV4","title":"Candy Bar Station","category":null,"createdAt":"2025-12-08T10:17:27.207Z","updatedAt":"2025-12-08T10:17:27.207Z","publishedAt":"2025-12-08T10:17:27.207Z","locale":"en"},{"id":82,"documentId":"e6F7Eohpqa_C2hxB","title":"Photo Booth Props","category":null,"createdAt":"2025-12-08T10:17:27.207Z","updatedAt":"2025-12-08T10:17:27.207Z","publishedAt":"2025-12-08T10:17:27.207Z","locale":"en"},{"id":122,"documentId":"nq84lojacybwyhcyq5a7n325","title":"chika","category":"playground","createdAt":"2025-12-11T15:01:28.243Z","updatedAt":"2025-12-11T15:01:28.243Z","publishedAt":"2025-12-11T15:01:28.262Z","locale":"en"}],"meta":{"pagination":{"page":1,"pageSize":25,"pageCount":1,"total":20}}}HTTP/1.1 404 Not Found
{"data":null,"error":{"status":404,"name":"NotFoundError","message":"Not Found","details":{}}}HTTP/1.1 200 OK
{"data":[{"id":70,"documentId":"E-DUrTGYXAWNJ7UG","name":"Mini Pizzas","category":"food","pricePerChild":5.5,"description":"Personal size cheese pizza","createdAt":"2025-12-08T10:17:27.184Z","updatedAt":"2025-12-08T10:17:27.184Z","publishedAt":"2025-12-08T10:17:27.184Z","locale":"en"},{"id":72,"documentId":"U-bAPthj5v5U3HJE","name":"Hot Dogs","category":"food","pricePerChild":4.5,"description":"Classic hot dogs with buns","createdAt":"2025-12-08T10:17:27.184Z","updatedAt":"2025-12-08T10:17:27.184Z","publishedAt":"2025-12-08T10:17:27.184Z","locale":"en"},{"id":74,"documentId":"OL8voR2MZqClXBNX","name":"Pasta Bolognese","category":"food","pricePerChild":6,"description":"Spaghetti with meat sauce","createdAt":"2025-12-08T10:17:27.185Z","updatedAt":"2025-12-08T10:17:27.185Z","publishedAt":"2025-12-08T10:17:27.185Z","locale":"en"},{"id":76,"documentId":"5TaTJ_kuGqtJqpB3","name":"Mac & Cheese","category":"food","pricePerChild":5,"description":"Creamy macaroni and cheese","createdAt":"2025-12-08T10:17:27.185Z","updatedAt":"2025-12-08T10:17:27.185Z","publishedAt":"2025-12-08T10:17:27.185Z","locale":"en"},{"id":78,"documentId":"4kcwTiJl7pbVXIMF","name":"Mini Burgers","category":"food","pricePerChild":6.5,"description":"Slider burgers with cheese","createdAt":"2025-12-08T10:17:27.185Z","updatedAt":"2025-12-08T10:17:27.185Z","publishedAt":"2025-12-08T10:17:27.185Z","locale":"en"},{"id":80,"documentId":"f87-sS4gGTrMVIb7","name":"Fish Fingers","category":"food","pricePerChild":5.5,"description":"Crispy breaded fish sticks","createdAt":"2025-12-08T10:17:27.185Z","updatedAt":"2025-12-08T10:17:27.185Z","publishedAt":"2025-12-08T10:17:27.185Z","locale":"en"},{"id":82,"documentId":"wnEfMgiuB0Bi0eGA","name":"Veggie Sticks & Dip","category":"food","pricePerChild":3,"description":"Carrots, celery with ranch","createdAt":"2025-12-08T10:17:27.185Z","updatedAt":"2025-12-08T10:17:27.185Z","publishedAt":"2025-12-08T10:17:27.185Z","locale":"en"},{"id":84,"documentId":"89QpJvjAzaSISkFF","name":"Cheese Quesadillas","category":"food","pricePerChild":5,"description":"Grilled tortillas with melted cheese","createdAt":"2025-12-08T10:17:27.185Z","updatedAt":"2025-12-08T10:17:27.185Z","publishedAt":"2025-12-08T10:17:27.185Z","locale":"en"},{"id":86,"documentId":"abzWVLq9FEMG2uXw","name":"Popcorn Chicken","category":"food","pricePerChild":4.5,"description":"Bite-sized crispy chicken","createdAt":"2025-12-08T10:17:27.185Z","updatedAt":"2025-12-08T10:17:27.185Z","publishedAt":"2025-12-08T10:17:27.185Z","locale":"en"},{"id":88,"documentId":"aFjllP13wWRv1f5D","name":"Lemonade","category":"drinks","pricePerChild":2.5,"description":"Fresh squeezed lemonade","createdAt":"2025-12-08T10:17:27.186Z","updatedAt":"2025-12-08T10:17:27.186Z","publishedAt":"2025-12-08T10:17:27.186Z","locale":"en"},{"id":90,"documentId":"yGiDkNyuCSSCMS1l","name":"Milkshakes","category":"drinks","pricePerChild":4,"description":"Chocolate, vanilla, or strawberry","createdAt":"2025-12-08T10:17:27.186Z","updatedAt":"2025-12-08T10:17:27.186Z","publishedAt":"2025-12-08T10:17:27.186Z","locale":"en"},{"id":92,"documentId":"ZTL50qOoRcsxTYB7","name":"Soft Drinks","category":"drinks","pricePerChild":2,"description":"Cola, sprite, or fanta","createdAt":"2025-12-08T10:17:27.186Z","updatedAt":"2025-12-08T10:17:27.186Z","publishedAt":"2025-12-08T10:17:27.186Z","locale":"en"},{"id":94,"documentId":"8A2-EsIutbvrnsaD","name":"Fruit Smoothies","category":"drinks","pricePerChild":4.5,"description":"Mixed berry or tropical","createdAt":"2025-12-08T10:17:27.186Z","updatedAt":"2025-12-08T10:17:27.186Z","publishedAt":"2025-12-08T10:17:27.186Z","locale":"en"},{"id":96,"documentId":"86hRi1lFKn8-dRBt","name":"Hot Chocolate","category":"drinks","pricePerChild":3,"description":"Warm cocoa with marshmallows","createdAt":"2025-12-08T10:17:27.186Z","updatedAt":"2025-12-08T10:17:27.186Z","publishedAt":"2025-12-08T10:17:27.186Z","locale":"en"},{"id":98,"documentId":"8RSR1em2w1OPOGwp","name":"Iced Tea","category":"drinks","pricePerChild":2.5,"description":"Peach or lemon flavored","createdAt":"2025-12-08T10:17:27.186Z","updatedAt":"2025-12-08T10:17:27.186Z","publishedAt":"2025-12-08T10:17:27.186Z","locale":"en"},{"id":100,"documentId":"JXF4qzwiU5WpOabj","name":"Water Bottles","category":"drinks","pricePerChild":1.5,"description":"Still or sparkling","createdAt":"2025-12-08T10:17:27.186Z","updatedAt":"2025-12-08T10:17:27.186Z","publishedAt":"2025-12-08T10:17:27.186Z","locale":"en"},{"id":102,"documentId":"WJGWCOQvjYnd8kHl","name":"Ice Cream Sundae","category":"dessert","pricePerChild":4,"description":"Vanilla ice cream with toppings","createdAt":"2025-12-08T10:17:27.186Z","updatedAt":"2025-12-08T10:17:27.186Z","publishedAt":"2025-12-08T10:17:27.186Z","locale":"en"},{"id":104,"documentId":"kXzIXnpGsOutpQCD","name":"Cupcakes","category":"dessert","pricePerChild":3.5,"description":"Assorted flavored cupcakes","createdAt":"2025-12-08T10:17:27.186Z","updatedAt":"2025-12-08T10:17:27.186Z","publishedAt":"2025-12-08T10:17:27.186Z","locale":"en"},{"id":106,"documentId":"DJYAZlz4Bq6AFm-U","name":"Brownies","category":"dessert","pricePerChild":3,"description":"Fudgy chocolate brownies","createdAt":"2025-12-08T10:17:27.187Z","updatedAt":"2025-12-08T10:17:27.187Z","publishedAt":"2025-12-08T10:17:27.187Z","locale":"en"},{"id":108,"documentId":"GJLMKMiGLh7NlGY5","name":"Fruit Platter","category":"dessert","pricePerChild":3.5,"description":"Fresh seasonal fruits","createdAt":"2025-12-08T10:17:27.187Z","updatedAt":"2025-12-08T10:17:27.187Z","publishedAt":"2025-12-08T10:17:27.187Z","locale":"en"},{"id":110,"documentId":"jQcYFYI8hyDbYqsv","name":"Cookies","category":"dessert","pricePerChild":2.5,"description":"Chocolate chip or sugar cookies","createdAt":"2025-12-08T10:17:27.187Z","updatedAt":"2025-12-08T10:17:27.187Z","publishedAt":"2025-12-08T10:17:27.187Z","locale":"en"},{"id":112,"documentId":"yx_TTe5_8dltU8p-","name":"Donuts","category":"dessert","pricePerChild":3,"description":"Glazed and decorated donuts","createdAt":"2025-12-08T10:17:27.187Z","updatedAt":"2025-12-08T10:17:27.187Z","publishedAt":"2025-12-08T10:17:27.187Z","locale":"en"},{"id":114,"documentId":"rTsp5aqVvolxmDeo","name":"Candy Bar","category":"dessert","pricePerChild":5,"description":"Assorted candy station","createdAt":"2025-12-08T10:17:27.187Z","updatedAt":"2025-12-08T10:17:27.187Z","publishedAt":"2025-12-08T10:17:27.187Z","locale":"en"},{"id":116,"documentId":"kWephU1QoJSZLj6R","name":"Pudding Cups","category":"dessert","pricePerChild":2.5,"description":"Chocolate or vanilla pudding","createdAt":"2025-12-08T10:17:27.187Z","updatedAt":"2025-12-08T10:17:27.187Z","publishedAt":"2025-12-08T10:17:27.187Z","locale":"en"},{"id":118,"documentId":"3nzieBiEQy8gzoOh","name":"Party Bags","category":"extras","pricePerChild":4,"description":"Take-home goodie bags","createdAt":"2025-12-08T10:17:27.187Z","updatedAt":"2025-12-08T10:17:27.187Z","publishedAt":"2025-12-08T10:17:27.187Z","locale":"en"}],"meta":{"pagination":{"page":1,"pageSize":25,"pageCount":2,"total":30}}}HTTP/1.1 404 Not Found
{"data":null,"error":{"status":404,"name":"NotFoundError","message":"Not Found","details":{}}}HTTP/1.1 200 OK
{"data":[{"id":2,"documentId":"c6phe03rv5pqf76vv3mmes2s","name":"Basic Fun Party","slug":"basic-fun-party","shortDescription":"Perfect for smaller birthdays.","fullDescription":"Includes playground access, balloons, and music.","durationMinutes":120,"pricePerChild":20,"minGuests":5,"maxGuests":20,"createdAt":"2025-12-07T13:49:37.011Z","updatedAt":"2025-12-07T13:49:37.011Z","publishedAt":"2025-12-07T13:49:37.022Z","locale":"en"},{"id":4,"documentId":"frvl7hk9fmj0i7frhn1puesa","name":"Premium Adventure Party","slug":"premium-adventure-party","shortDescription":"Upgrade with more fun activities.","fullDescription":"Includes face painting, mascots, and themed decorations.","durationMinutes":180,"pricePerChild":30,"minGuests":10,"maxGuests":30,"createdAt":"2025-12-07T13:49:37.049Z","updatedAt":"2025-12-07T13:49:37.049Z","publishedAt":"2025-12-07T13:49:37.057Z","locale":"en"},{"id":26,"documentId":"U0WgQdHIAgxS2ReR","name":"Super Adventure Party","slug":"super-adventure-party","shortDescription":"Adventure-themed birthday experience.","fullDescription":"Obstacle course, games, and themed decorations.","durationMinutes":120,"pricePerChild":35,"minGuests":8,"maxGuests":25,"createdAt":"2025-12-08T10:17:27.175Z","updatedAt":"2025-12-08T10:17:27.175Z","publishedAt":"2025-12-08T10:17:27.175Z","locale":"en"},{"id":28,"documentId":"mXCKr9YWUbMR0NBI","name":"Mega VIP Party","slug":"mega-vip-party","shortDescription":"Premium party with full VIP treatment.","fullDescription":"Exclusive room, premium menu, and more.","durationMinutes":150,"pricePerChild":50,"minGuests":10,"maxGuests":30,"createdAt":"2025-12-08T10:17:27.176Z","updatedAt":"2025-12-08T10:17:27.176Z","publishedAt":"2025-12-08T10:17:27.176Z","locale":"en"},{"id":30,"documentId":"6WXHP15Voi6U4un4","name":"Princess Party","slug":"princess-party","shortDescription":"A magical experience for little princesses.","fullDescription":"Transform into royalty with dress-up, tiaras, and a royal tea party.","durationMinutes":120,"pricePerChild":40,"minGuests":6,"maxGuests":15,"createdAt":"2025-12-08T10:17:27.176Z","updatedAt":"2025-12-08T10:17:27.176Z","publishedAt":"2025-12-08T10:17:27.176Z","locale":"en"},{"id":32,"documentId":"g3GR30semlR0f0pD","name":"Superhero Training Camp","slug":"superhero-training-camp","shortDescription":"Train to become a superhero!","fullDescription":"Action-packed party with superhero training, games, and cape decorating.","durationMinutes":120,"pricePerChild":38,"minGuests":8,"maxGuests":20,"createdAt":"2025-12-08T10:17:27.177Z","updatedAt":"2025-12-08T10:17:27.177Z","publishedAt":"2025-12-08T10:17:27.177Z","locale":"en"},{"id":34,"documentId":"BQRCKxiurJ8LPdpa","name":"Science Lab Party","slug":"science-lab-party","shortDescription":"Explosive fun with science experiments!","fullDescription":"Interactive science experiments with slime, volcanoes, and more.","durationMinutes":90,"pricePerChild":32,"minGuests":6,"maxGuests":18,"createdAt":"2025-12-08T10:17:27.177Z","updatedAt":"2025-12-08T10:17:27.177Z","publishedAt":"2025-12-08T10:17:27.177Z","locale":"en"},{"id":36,"documentId":"kFFZu6U5crq8yWhQ","name":"Art Studio Party","slug":"art-studio-party","shortDescription":"Unleash creativity with art projects.","fullDescription":"Paint, create, and explore artistic talents with guided projects.","durationMinutes":100,"pricePerChild":30,"minGuests":5,"maxGuests":16,"createdAt":"2025-12-08T10:17:27.177Z","updatedAt":"2025-12-08T10:17:27.177Z","publishedAt":"2025-12-08T10:17:27.177Z","locale":"en"},{"id":38,"documentId":"S1qRoWH5qq8bE-dQ","name":"Sports Champions Party","slug":"sports-champions-party","shortDescription":"Active sports party for energetic kids.","fullDescription":"Multi-sport activities including soccer, basketball, and relay races.","durationMinutes":120,"pricePerChild":33,"minGuests":10,"maxGuests":25,"createdAt":"2025-12-08T10:17:27.177Z","updatedAt":"2025-12-08T10:17:27.177Z","publishedAt":"2025-12-08T10:17:27.177Z","locale":"en"},{"id":40,"documentId":"QTMCVqg1-pIsJSxt","name":"Gaming Party","slug":"gaming-party","shortDescription":"Epic gaming tournament for gamers.","fullDescription":"Video game stations with popular multiplayer games and tournaments.","durationMinutes":120,"pricePerChild":35,"minGuests":6,"maxGuests":16,"createdAt":"2025-12-08T10:17:27.177Z","updatedAt":"2025-12-08T10:17:27.177Z","publishedAt":"2025-12-08T10:17:27.177Z","locale":"en"},{"id":42,"documentId":"A6FfefqMvMMYgVD8","name":"Dinosaur Discovery Party","slug":"dinosaur-discovery-party","shortDescription":"Journey back to prehistoric times!","fullDescription":"Dinosaur-themed adventure with fossil digging, games, and activities.","durationMinutes":110,"pricePerChild":36,"minGuests":8,"maxGuests":20,"createdAt":"2025-12-08T10:17:27.177Z","updatedAt":"2025-12-08T10:17:27.177Z","publishedAt":"2025-12-08T10:17:27.177Z","locale":"en"},{"id":44,"documentId":"ZqPtfogRJIf79Sx4","name":"Dance Party Extravaganza","slug":"dance-party-extravaganza","shortDescription":"Dance, music, and lights show!","fullDescription":"Professional DJ, disco lights, and dance competitions.","durationMinutes":120,"pricePerChild":37,"minGuests":10,"maxGuests":30,"createdAt":"2025-12-08T10:17:27.178Z","updatedAt":"2025-12-08T10:17:27.178Z","publishedAt":"2025-12-08T10:17:27.178Z","locale":"en"}],"meta":{"pagination":{"page":1,"pageSize":25,"pageCount":1,"total":12}}}HTTP/1.1 404 Not Found
{"data":null,"error":{"status":404,"name":"NotFoundError","message":"Not Found","details":{}}}HTTP/1.1 200 OK
{"data":[{"id":146,"documentId":"elqieGkQoxCQ9Ole","date":"2025-12-16","startTime":"10:00:00.000","endTime":"12:00:00.000","status":"available","maxParties":2,"bookedParties":0,"createdAt":"2025-12-08T10:17:27.200Z","updatedAt":"2025-12-08T10:17:27.200Z","publishedAt":"2025-12-08T10:17:27.200Z"},{"id":148,"documentId":"o1-qErGWTJUWZiYr","date":"2025-12-16","startTime":"12:30:00.000","endTime":"14:30:00.000","status":"available","maxParties":2,"bookedParties":0,"createdAt":"2025-12-08T10:17:27.200Z","updatedAt":"2025-12-08T10:17:27.200Z","publishedAt":"2025-12-08T10:17:27.200Z"},{"id":150,"documentId":"_YTJRTe9JC8gUMS_","date":"2025-12-16","startTime":"15:00:00.000","endTime":"17:00:00.000","status":"limited","maxParties":2,"bookedParties":1,"createdAt":"2025-12-08T10:17:27.200Z","updatedAt":"2025-12-08T10:17:27.200Z","publishedAt":"2025-12-08T10:17:27.200Z"},{"id":152,"documentId":"1T1-D_FMfGyJ0N3-","date":"2025-12-17","startTime":"10:00:00.000","endTime":"12:00:00.000","status":"booked","maxParties":2,"bookedParties":2,"createdAt":"2025-12-08T10:17:27.200Z","updatedAt":"2025-12-08T10:17:27.200Z","publishedAt":"2025-12-08T10:17:27.200Z"},{"id":154,"documentId":"6Izs4w_pY2F9Gctn","date":"2025-12-17","startTime":"12:30:00.000","endTime":"14:30:00.000","status":"available","maxParties":2,"bookedParties":0,"createdAt":"2025-12-08T10:17:27.200Z","updatedAt":"2025-12-08T10:17:27.200Z","publishedAt":"2025-12-08T10:17:27.200Z"},{"id":156,"documentId":"08WegjbSUhETWWWD","date":"2025-12-17","startTime":"15:00:00.000","endTime":"17:00:00.000","status":"booked","maxParties":2,"bookedParties":2,"createdAt":"2025-12-08T10:17:27.200Z","updatedAt":"2025-12-08T10:17:27.200Z","publishedAt":"2025-12-08T10:17:27.200Z"},{"id":158,"documentId":"HzOVG9iQZg-iA984","date":"2025-12-18","startTime":"10:00:00.000","endTime":"12:00:00.000","status":"available","maxParties":2,"bookedParties":0,"createdAt":"2025-12-08T10:17:27.200Z","updatedAt":"2025-12-08T10:17:27.200Z","publishedAt":"2025-12-08T10:17:27.200Z"},{"id":160,"documentId":"E7Pau70wO20_lYfI","date":"2025-12-18","startTime":"12:30:00.000","endTime":"14:30:00.000","status":"limited","maxParties":2,"bookedParties":1,"createdAt":"2025-12-08T10:17:27.200Z","updatedAt":"2025-12-08T10:17:27.200Z","publishedAt":"2025-12-08T10:17:27.200Z"},{"id":162,"documentId":"MVtUzocIPwW25Lk_","date":"2025-12-18","startTime":"15:00:00.000","endTime":"17:00:00.000","status":"available","maxParties":2,"bookedParties":0,"createdAt":"2025-12-08T10:17:27.200Z","updatedAt":"2025-12-08T10:17:27.200Z","publishedAt":"2025-12-08T10:17:27.200Z"},{"id":164,"documentId":"BRCuar29q6H8OZZp","date":"2025-12-19","startTime":"10:00:00.000","endTime":"12:00:00.000","status":"limited","maxParties":2,"bookedParties":1,"createdAt":"2025-12-08T10:17:27.200Z","updatedAt":"2025-12-08T10:17:27.200Z","publishedAt":"2025-12-08T10:17:27.200Z"},{"id":166,"documentId":"ylsQMBc--7cuSjIO","date":"2025-12-19","startTime":"12:30:00.000","endTime":"14:30:00.000","status":"booked","maxParties":2,"bookedParties":2,"createdAt":"2025-12-08T10:17:27.200Z","updatedAt":"2025-12-08T10:17:27.200Z","publishedAt":"2025-12-08T10:17:27.200Z"},{"id":168,"documentId":"cZTMKdSqGzwSJ0hZ","date":"2025-12-19","startTime":"15:00:00.000","endTime":"17:00:00.000","status":"available","maxParties":2,"bookedParties":0,"createdAt":"2025-12-08T10:17:27.200Z","updatedAt":"2025-12-08T10:17:27.200Z","publishedAt":"2025-12-08T10:17:27.200Z"},{"id":170,"documentId":"9gojRdcPFwg4fQnZ","date":"2025-12-20","startTime":"10:00:00.000","endTime":"12:00:00.000","status":"available","maxParties":2,"bookedParties":0,"createdAt":"2025-12-08T10:17:27.200Z","updatedAt":"2025-12-08T10:17:27.200Z","publishedAt":"2025-12-08T10:17:27.200Z"},{"id":172,"documentId":"4jBa6z_yuqVkR0DJ","date":"2025-12-20","startTime":"12:30:00.000","endTime":"14:30:00.000","status":"available","maxParties":2,"bookedParties":0,"createdAt":"2025-12-08T10:17:27.200Z","updatedAt":"2025-12-08T10:17:27.200Z","publishedAt":"2025-12-08T10:17:27.200Z"},{"id":174,"documentId":"_n3kcp9dwAlafB5Z","date":"2025-12-20","startTime":"15:00:00.000","endTime":"17:00:00.000","status":"limited","maxParties":2,"bookedParties":1,"createdAt":"2025-12-08T10:17:27.200Z","updatedAt":"2025-12-08T10:17:27.200Z","publishedAt":"2025-12-08T10:17:27.200Z"},{"id":176,"documentId":"ko9tmNmF0wxdhXYa","date":"2025-12-20","startTime":"17:30:00.000","endTime":"19:30:00.000","status":"limited","maxParties":2,"bookedParties":1,"createdAt":"2025-12-08T10:17:27.200Z","updatedAt":"2025-12-08T10:17:27.200Z","publishedAt":"2025-12-08T10:17:27.200Z"},{"id":178,"documentId":"g03-Z_4fkN_cp7cP","date":"2025-12-21","startTime":"10:00:00.000","endTime":"12:00:00.000","status":"available","maxParties":2,"bookedParties":0,"createdAt":"2025-12-08T10:17:27.200Z","updatedAt":"2025-12-08T10:17:27.200Z","publishedAt":"2025-12-08T10:17:27.200Z"},{"id":180,"documentId":"l6Ab2w0bbcCQPthN","date":"2025-12-21","startTime":"12:30:00.000","endTime":"14:30:00.000","status":"booked","maxParties":2,"bookedParties":2,"createdAt":"2025-12-08T10:17:27.200Z","updatedAt":"2025-12-08T10:17:27.200Z","publishedAt":"2025-12-08T10:17:27.200Z"},{"id":182,"documentId":"DHLCqah6K5QBPET_","date":"2025-12-21","startTime":"15:00:00.000","endTime":"17:00:00.000","status":"booked","maxParties":2,"bookedParties":2,"createdAt":"2025-12-08T10:17:27.200Z","updatedAt":"2025-12-08T10:17:27.200Z","publishedAt":"2025-12-08T10:17:27.200Z"},{"id":184,"documentId":"F1BEAGrZOra3m03m","date":"2025-12-21","startTime":"17:30:00.000","endTime":"19:30:00.000","status":"available","maxParties":2,"bookedParties":0,"createdAt":"2025-12-08T10:17:27.200Z","updatedAt":"2025-12-08T10:17:27.200Z","publishedAt":"2025-12-08T10:17:27.200Z"},{"id":186,"documentId":"vIEMTonp9QwEL1An","date":"2025-12-22","startTime":"10:00:00.000","endTime":"12:00:00.000","status":"limited","maxParties":2,"bookedParties":1,"createdAt":"2025-12-08T10:17:27.200Z","updatedAt":"2025-12-08T10:17:27.200Z","publishedAt":"2025-12-08T10:17:27.200Z"},{"id":188,"documentId":"N_hEoRuA485kLRF3","date":"2025-12-22","startTime":"12:30:00.000","endTime":"14:30:00.000","status":"available","maxParties":2,"bookedParties":0,"createdAt":"2025-12-08T10:17:27.200Z","updatedAt":"2025-12-08T10:17:27.200Z","publishedAt":"2025-12-08T10:17:27.200Z"},{"id":190,"documentId":"T9M3t8xrLXLhQds8","date":"2025-12-22","startTime":"15:00:00.000","endTime":"17:00:00.000","status":"limited","maxParties":2,"bookedParties":1,"createdAt":"2025-12-08T10:17:27.200Z","updatedAt":"2025-12-08T10:17:27.200Z","publishedAt":"2025-12-08T10:17:27.200Z"},{"id":192,"documentId":"Yv3JQ2J_VU72zVLK","date":"2025-12-23","startTime":"10:00:00.000","endTime":"12:00:00.000","status":"available","maxParties":2,"bookedParties":0,"createdAt":"2025-12-08T10:17:27.200Z","updatedAt":"2025-12-08T10:17:27.200Z","publishedAt":"2025-12-08T10:17:27.200Z"},{"id":194,"documentId":"GNhc_GK8WJNk1DmK","date":"2025-12-23","startTime":"12:30:00.000","endTime":"14:30:00.000","status":"booked","maxParties":2,"bookedParties":2,"createdAt":"2025-12-08T10:17:27.200Z","updatedAt":"2025-12-08T10:17:27.200Z","publishedAt":"2025-12-08T10:17:27.200Z"}],"meta":{"pagination":{"page":1,"pageSize":25,"pageCount":3,"total":63}}}HTTP/1